<svg version="1.1"xmlns="http://www.w3.org/2000/svg" viewBox="0 0 286.9 308.3" class="svg-googleplay">
	<g>
		<path d="M0,155.1c0-45,0-90,0-135C0,15.1,0.5,10.2,3.8,6C5.9,3.2,7.4,3,10,5.7C23.1,19.4,36.4,33,49.7,46.5
			c23.3,23.6,46.7,47.1,70,70.7c12.8,12.9,25.4,26,38.3,38.7c3,3,3.3,4.5,0.1,7.7c-47.2,46.8-94.2,93.8-141.3,140.7
			c-6,6-10.1,5.3-14.6-2.2c-2.3-3.8-2.1-8-2.1-12.1C0,245.1,0,200.1,0,155.1C0,155.1,0,155.1,0,155.1z"/>
		<path d="M18.3,0c3.8-0.3,6.6,1.5,9.4,3.1c29.5,16.5,58.9,33,88.3,49.5c31.6,17.7,63.1,35.5,94.8,53.1
			c3.6,2,2.6,3.1,0.4,5.2c-13.4,13.2-26.8,26.4-40,39.8c-2.4,2.5-3.8,2.1-6-0.2C130.8,115.4,96.2,80.3,61.7,45.2
			C48.3,31.6,35,18.1,21.7,4.5C20.5,3.3,18.9,2.2,18.3,0z"/>
		<path d="M208.5,207.6c-58.6,32.1-117,64.1-176.1,96.6c0.7-3.1,2.5-4.2,3.8-5.5c36.3-36.2,72.7-72.4,109-108.6
			c7-7,14.1-14,21.1-21.1c1.3-1.3,2.3-2.7,4.3-0.6C183,181.4,195.5,194.3,208.5,207.6z"/>
		<path d="M286.9,156.3c-0.3,6.2-4,10.3-9.2,13.2c-7.4,4.2-14.9,8.2-22.3,12.3c-11.7,6.4-23.4,12.7-35,19.3
			c-3,1.7-4.9,1.5-7.3-1.1c-11.8-12.4-23.6-24.8-35.6-37c-2.2-2.3-2-3.4,0.1-5.5c11.8-11.5,23.5-23.2,35.1-34.9
			c2.6-2.6,4.9-5.4,7.2-8.2c1.6-1.9,3-1.9,5.2-0.7c17.4,9.8,34.9,19.4,52.3,29.2C282.5,146,287,149.5,286.9,156.3z"/>
	</g>
</svg>
